<?xml version="1.0" encoding="UTF-8"?>
<COLLADA xmlns="http://www.collada.org/2008/03/COLLADASchema" version="1.5.0">
	<asset>
		<contributor>
			<authoring_tool>URDF Collada Writer</authoring_tool>
		</contributor>
		<created>2013-07-31T11:07:23.000000</created>
		<modified>2013-07-31T11:07:23.000000</modified>
		<unit/>
		<up_axis>Z_UP</up_axis>
	</asset>
	<library_visual_scenes id="vscenes">
		<visual_scene id="vscene" name="URDF Visual Scene">
			<node id="visual0" name="lwa4p" sid="visual0">
				<node id="vkmodel0_node7" name="base_link" sid="node7">
					<translate>0 0 0</translate>
					<rotate>1 0 0 0</rotate>
					<node id="vkmodel0_node0" name="arm_0_link" sid="node0">
						<translate>-0 -0 -0</translate>
						<rotate>1 0 0 0</rotate>
						<translate>0 0 0.5</translate>
						<rotate>1 0 0 0</rotate>
						<rotate sid="node_arm_0_joint_axis0">0 0 0 0</rotate>
						<translate>0 0 0</translate>
						<rotate>1 0 0 0</rotate>
						<node id="vkmodel0_node1" name="arm_1_link" sid="node1">
							<translate>-0 -0 -0</translate>
							<rotate>1 0 0 0</rotate>
							<translate>0 0 0.11</translate>
							<rotate>1 0 0 0</rotate>
							<rotate sid="node_arm_1_joint_axis0">0 0 1 0</rotate>
							<translate>0 0 0</translate>
							<rotate>1 0 0 0</rotate>
							<node id="vkmodel0_node2" name="arm_2_link" sid="node2">
								<translate>-0 -0 -0</translate>
								<rotate>1 0 0 0</rotate>
								<translate>0 0 0</translate>
								<rotate>1 0 0 90.00</rotate>
								<rotate sid="node_arm_2_joint_axis0">0 0 1 0</rotate>
								<translate>0 0 0</translate>
								<rotate>1 0 0 0</rotate>
								<node id="vkmodel0_node3" name="arm_3_link" sid="node3">
									<translate>-0 -0 -0</translate>
									<rotate>1 0 0 0</rotate>
									<translate>0 0.35 0</translate>
									<rotate>0 1 0 180</rotate>
									<rotate sid="node_arm_3_joint_axis0">0 0 1 0</rotate>
									<translate>0 0 0</translate>
									<rotate>1 0 0 0</rotate>
									<node id="vkmodel0_node4" name="arm_4_link" sid="node4">
										<translate>-0 -0 -0</translate>
										<rotate>1 0 0 0</rotate>
										<translate>0 0 0</translate>
										<rotate>0 0.707107 0.707107 180</rotate>
										<rotate sid="node_arm_4_joint_axis0">0 0 1 0</rotate>
										<translate>0 0 0</translate>
										<rotate>1 0 0 0</rotate>
										<node id="vkmodel0_node5" name="arm_5_link" sid="node5">
											<translate>-0 -0 -0</translate>
											<rotate>1 0 0 0</rotate>
											<translate>0 0 0.305</translate>
											<rotate>0 0.707107 0.707107 180</rotate>
											<rotate sid="node_arm_5_joint_axis0">0 0 1 0</rotate>
											<translate>0 0 0</translate>
											<rotate>1 0 0 0</rotate>
											<node id="vkmodel0_node6" name="arm_6_link" sid="node6">
												<translate>-0 -0 -0</translate>
												<rotate>1 0 0 0</rotate>
												<translate>0 0 0</translate>
												<rotate>-1 0 0 90.00</rotate>
												<rotate sid="node_arm_6_joint_axis0">0 0 1 0</rotate>
												<translate>0 0 0</translate>
												<rotate>1 0 0 0</rotate>
											</node>
										</node>
									</node>
								</node>
							</node>
						</node>
					</node>
				</node>
			</node>
		</visual_scene>
	</library_visual_scenes>
	<library_geometries id="geometries"/>
	<library_effects id="effects"/>
	<library_materials id="materials"/>
	<library_kinematics_models id="kmodels">
		<kinematics_model id="kmodel0" name="lwa4p">
			<technique_common>
				<joint name="arm_0_joint" sid="arm_0_joint">
					<revolute sid="axis0">
						<axis>0 0 0</axis>
						<limits>
							<min>0</min>
							<max>0</max>
						</limits>
					</revolute>
				</joint>
				<joint name="arm_1_joint" sid="arm_1_joint">
					<revolute sid="axis0">
						<axis>0 0 1</axis>
						<limits>
							<min>-360</min>
							<max>360</max>
						</limits>
					</revolute>
				</joint>
				<joint name="arm_2_joint" sid="arm_2_joint">
					<revolute sid="axis0">
						<axis>0 0 1</axis>
						<limits>
							<min>-120</min>
							<max>120</max>
						</limits>
					</revolute>
				</joint>
				<joint name="arm_3_joint" sid="arm_3_joint">
					<revolute sid="axis0">
						<axis>0 0 1</axis>
						<limits>
							<min>-360</min>
							<max>360</max>
						</limits>
					</revolute>
				</joint>
				<joint name="arm_4_joint" sid="arm_4_joint">
					<revolute sid="axis0">
						<axis>0 0 1</axis>
						<limits>
							<min>-120</min>
							<max>120</max>
						</limits>
					</revolute>
				</joint>
				<joint name="arm_5_joint" sid="arm_5_joint">
					<revolute sid="axis0">
						<axis>0 0 1</axis>
						<limits>
							<min>-360</min>
							<max>360</max>
						</limits>
					</revolute>
				</joint>
				<joint name="arm_6_joint" sid="arm_6_joint">
					<revolute sid="axis0">
						<axis>0 0 1</axis>
						<limits>
							<min>-120</min>
							<max>120</max>
						</limits>
					</revolute>
				</joint>
				<link sid="base_link" name="base_link">
					<attachment_full joint="kmodel0/arm_0_joint">
						<translate>0 0 0.5</translate>
						<rotate>1 0 0 0</rotate>
						<link sid="arm_0_link" name="arm_0_link">
							<attachment_full joint="kmodel0/arm_1_joint">
								<translate>0 0 0.11</translate>
								<rotate>0 0 1 0</rotate>
								<link sid="arm_1_link" name="arm_1_link">
									<attachment_full joint="kmodel0/arm_2_joint">
										<translate>0 0 0</translate>
										<rotate>0 0 1 0.00</rotate>
										<link sid="arm_2_link" name="arm_2_link">
											<attachment_full joint="kmodel0/arm_3_joint">
												<translate>0 0.35 0</translate>
												<rotate>0 0 1 90</rotate>
												<link sid="arm_3_link" name="arm_3_link">
													<attachment_full joint="kmodel0/arm_4_joint">
														<translate>0 0 0</translate>
														<rotate>0 0.707107 0.707107 180</rotate>
														<link sid="arm_4_link" name="arm_4_link">
															<attachment_full joint="kmodel0/arm_5_joint">
																<translate>0 0 0.305</translate>
																<rotate>0 0.707107 0.707107 180</rotate>
																<link sid="arm_5_link" name="arm_5_link">
																	<attachment_full joint="kmodel0/arm_6_joint">
																		<translate>0 0 0</translate>
																		<rotate>-1 0 0 90.00</rotate>
																		<link sid="arm_6_link" name="arm_6_link"/>
																	</attachment_full>
																</link>
															</attachment_full>
														</link>
													</attachment_full>
												</link>
											</attachment_full>
										</link>
									</attachment_full>
								</link>
							</attachment_full>
						</link>
					</attachment_full>
				</link>
			</technique_common>
		</kinematics_model>
	</library_kinematics_models>
	<library_articulated_systems id="asystems">
		<articulated_system id="robot0_motion">
			<motion>
				<instance_articulated_system url="#robot0_kinematics">
					<newparam sid="robot0_motion_kmodel0_inst">
						<SIDREF>robot0_kinematics/robot0_kinematics_kmodel0_inst</SIDREF>
					</newparam>
					<newparam sid="robot0_motion_robot0_kinematics_kmodel0_inst_arm_0_joint_axis0">
						<SIDREF>robot0_kinematics/robot0_kinematics_kmodel0_inst_arm_0_joint_axis0</SIDREF>
					</newparam>
					<newparam sid="robot0_motion_robot0_kinematics_kmodel0_inst_arm_0_joint_axis0_value">
						<SIDREF>robot0_kinematics/robot0_kinematics_kmodel0_inst_arm_0_joint_axis0_value</SIDREF>
					</newparam>
					<newparam sid="robot0_motion_robot0_kinematics_kmodel0_inst_arm_1_joint_axis0">
						<SIDREF>robot0_kinematics/robot0_kinematics_kmodel0_inst_arm_1_joint_axis0</SIDREF>
					</newparam>
					<newparam sid="robot0_motion_robot0_kinematics_kmodel0_inst_arm_1_joint_axis0_value">
						<SIDREF>robot0_kinematics/robot0_kinematics_kmodel0_inst_arm_1_joint_axis0_value</SIDREF>
					</newparam>
					<newparam sid="robot0_motion_robot0_kinematics_kmodel0_inst_arm_2_joint_axis0">
						<SIDREF>robot0_kinematics/robot0_kinematics_kmodel0_inst_arm_2_joint_axis0</SIDREF>
					</newparam>
					<newparam sid="robot0_motion_robot0_kinematics_kmodel0_inst_arm_2_joint_axis0_value">
						<SIDREF>robot0_kinematics/robot0_kinematics_kmodel0_inst_arm_2_joint_axis0_value</SIDREF>
					</newparam>
					<newparam sid="robot0_motion_robot0_kinematics_kmodel0_inst_arm_3_joint_axis0">
						<SIDREF>robot0_kinematics/robot0_kinematics_kmodel0_inst_arm_3_joint_axis0</SIDREF>
					</newparam>
					<newparam sid="robot0_motion_robot0_kinematics_kmodel0_inst_arm_3_joint_axis0_value">
						<SIDREF>robot0_kinematics/robot0_kinematics_kmodel0_inst_arm_3_joint_axis0_value</SIDREF>
					</newparam>
					<newparam sid="robot0_motion_robot0_kinematics_kmodel0_inst_arm_4_joint_axis0">
						<SIDREF>robot0_kinematics/robot0_kinematics_kmodel0_inst_arm_4_joint_axis0</SIDREF>
					</newparam>
					<newparam sid="robot0_motion_robot0_kinematics_kmodel0_inst_arm_4_joint_axis0_value">
						<SIDREF>robot0_kinematics/robot0_kinematics_kmodel0_inst_arm_4_joint_axis0_value</SIDREF>
					</newparam>
					<newparam sid="robot0_motion_robot0_kinematics_kmodel0_inst_arm_5_joint_axis0">
						<SIDREF>robot0_kinematics/robot0_kinematics_kmodel0_inst_arm_5_joint_axis0</SIDREF>
					</newparam>
					<newparam sid="robot0_motion_robot0_kinematics_kmodel0_inst_arm_5_joint_axis0_value">
						<SIDREF>robot0_kinematics/robot0_kinematics_kmodel0_inst_arm_5_joint_axis0_value</SIDREF>
					</newparam>
					<newparam sid="robot0_motion_robot0_kinematics_kmodel0_inst_arm_6_joint_axis0">
						<SIDREF>robot0_kinematics/robot0_kinematics_kmodel0_inst_arm_6_joint_axis0</SIDREF>
					</newparam>
					<newparam sid="robot0_motion_robot0_kinematics_kmodel0_inst_arm_6_joint_axis0_value">
						<SIDREF>robot0_kinematics/robot0_kinematics_kmodel0_inst_arm_6_joint_axis0_value</SIDREF>
					</newparam>
				</instance_articulated_system>
				<technique_common>
					<axis_info axis="robot0_kinematics/axis_info_inst0"/>
					<axis_info axis="robot0_kinematics/axis_info_inst1">
						<speed>
							<float>2</float>
						</speed>
						<acceleration>
							<float>370</float>
						</acceleration>
					</axis_info>
					<axis_info axis="robot0_kinematics/axis_info_inst2">
						<speed>
							<float>2</float>
						</speed>
						<acceleration>
							<float>370</float>
						</acceleration>
					</axis_info>
					<axis_info axis="robot0_kinematics/axis_info_inst3">
						<speed>
							<float>2</float>
						</speed>
						<acceleration>
							<float>176</float>
						</acceleration>
					</axis_info>
					<axis_info axis="robot0_kinematics/axis_info_inst4">
						<speed>
							<float>2</float>
						</speed>
						<acceleration>
							<float>176</float>
						</acceleration>
					</axis_info>
					<axis_info axis="robot0_kinematics/axis_info_inst5">
						<speed>
							<float>2</float>
						</speed>
						<acceleration>
							<float>41.6</float>
						</acceleration>
					</axis_info>
					<axis_info axis="robot0_kinematics/axis_info_inst6">
						<speed>
							<float>2</float>
						</speed>
						<acceleration>
							<float>20.1</float>
						</acceleration>
					</axis_info>
				</technique_common>
			</motion>
		</articulated_system>
		<articulated_system id="robot0_kinematics">
			<kinematics>
				<instance_kinematics_model url="#kmodel0" sid="kmodel0_inst">
					<newparam sid="robot0_kinematics_kmodel0_inst">
						<SIDREF>robot0_kinematics/kmodel0_inst</SIDREF>
					</newparam>
					<newparam sid="robot0_kinematics_kmodel0_inst_arm_0_joint_axis0">
						<SIDREF>robot0_kinematics/kmodel0_inst/arm_0_joint/axis0</SIDREF>
					</newparam>
					<newparam sid="robot0_kinematics_kmodel0_inst_arm_0_joint_axis0_value">
						<float>0</float>
					</newparam>
					<newparam sid="robot0_kinematics_kmodel0_inst_arm_1_joint_axis0">
						<SIDREF>robot0_kinematics/kmodel0_inst/arm_1_joint/axis0</SIDREF>
					</newparam>
					<newparam sid="robot0_kinematics_kmodel0_inst_arm_1_joint_axis0_value">
						<float>0</float>
					</newparam>
					<newparam sid="robot0_kinematics_kmodel0_inst_arm_2_joint_axis0">
						<SIDREF>robot0_kinematics/kmodel0_inst/arm_2_joint/axis0</SIDREF>
					</newparam>
					<newparam sid="robot0_kinematics_kmodel0_inst_arm_2_joint_axis0_value">
						<float>0</float>
					</newparam>
					<newparam sid="robot0_kinematics_kmodel0_inst_arm_3_joint_axis0">
						<SIDREF>robot0_kinematics/kmodel0_inst/arm_3_joint/axis0</SIDREF>
					</newparam>
					<newparam sid="robot0_kinematics_kmodel0_inst_arm_3_joint_axis0_value">
						<float>0</float>
					</newparam>
					<newparam sid="robot0_kinematics_kmodel0_inst_arm_4_joint_axis0">
						<SIDREF>robot0_kinematics/kmodel0_inst/arm_4_joint/axis0</SIDREF>
					</newparam>
					<newparam sid="robot0_kinematics_kmodel0_inst_arm_4_joint_axis0_value">
						<float>0</float>
					</newparam>
					<newparam sid="robot0_kinematics_kmodel0_inst_arm_5_joint_axis0">
						<SIDREF>robot0_kinematics/kmodel0_inst/arm_5_joint/axis0</SIDREF>
					</newparam>
					<newparam sid="robot0_kinematics_kmodel0_inst_arm_5_joint_axis0_value">
						<float>0</float>
					</newparam>
					<newparam sid="robot0_kinematics_kmodel0_inst_arm_6_joint_axis0">
						<SIDREF>robot0_kinematics/kmodel0_inst/arm_6_joint/axis0</SIDREF>
					</newparam>
					<newparam sid="robot0_kinematics_kmodel0_inst_arm_6_joint_axis0_value">
						<float>0</float>
					</newparam>
				</instance_kinematics_model>
				<technique_common>
					<axis_info sid="axis_info_inst0" axis="kmodel0/arm_0_joint/axis0">
						<active>
							<bool>false</bool>
						</active>
						<locked>
							<bool>false</bool>
						</locked>
						<limits>
							<min>
								<float>0</float>
							</min>
							<max>
								<float>0</float>
							</max>
						</limits>
					</axis_info>
					<axis_info sid="axis_info_inst1" axis="kmodel0/arm_1_joint/axis0">
						<active>
							<bool>true</bool>
						</active>
						<locked>
							<bool>false</bool>
						</locked>
						<limits>
							<min>
								<float>-359.427</float>
							</min>
							<max>
								<float>359.427</float>
							</max>
						</limits>
					</axis_info>
					<axis_info sid="axis_info_inst2" axis="kmodel0/arm_2_joint/axis0">
						<active>
							<bool>true</bool>
						</active>
						<locked>
							<bool>false</bool>
						</locked>
						<limits>
							<min>
								<float>-119.422</float>
							</min>
							<max>
								<float>119.422</float>
							</max>
						</limits>
					</axis_info>
					<axis_info sid="axis_info_inst3" axis="kmodel0/arm_3_joint/axis0">
						<active>
							<bool>true</bool>
						</active>
						<locked>
							<bool>false</bool>
						</locked>
						<limits>
							<min>
								<float>-359.427</float>
							</min>
							<max>
								<float>359.427</float>
							</max>
						</limits>
					</axis_info>
					<axis_info sid="axis_info_inst4" axis="kmodel0/arm_4_joint/axis0">
						<active>
							<bool>true</bool>
						</active>
						<locked>
							<bool>false</bool>
						</locked>
						<limits>
							<min>
								<float>-119.427</float>
							</min>
							<max>
								<float>119.427</float>
							</max>
						</limits>
					</axis_info>
					<axis_info sid="axis_info_inst5" axis="kmodel0/arm_5_joint/axis0">
						<active>
							<bool>true</bool>
						</active>
						<locked>
							<bool>false</bool>
						</locked>
						<limits>
							<min>
								<float>-359.427</float>
							</min>
							<max>
								<float>359.427</float>
							</max>
						</limits>
					</axis_info>
					<axis_info sid="axis_info_inst6" axis="kmodel0/arm_6_joint/axis0">
						<active>
							<bool>true</bool>
						</active>
						<locked>
							<bool>false</bool>
						</locked>
						<limits>
							<min>
								<float>-119.427</float>
							</min>
							<max>
								<float>119.427</float>
							</max>
						</limits>
					</axis_info>
				</technique_common>
			</kinematics>
		</articulated_system>
	</library_articulated_systems>
	<library_kinematics_scenes id="kscenes">
		<kinematics_scene id="kscene" name="URDF Kinematics Scene">
			<instance_articulated_system sid="robot0_motion_inst" url="#robot0_motion" name="lwa4p">
				<bind symbol="kscene_kmodel0_inst">
					<param ref="robot0_motion/robot0_motion_kmodel0_inst"/>
				</bind>
				<bind symbol="kscene_kmodel0_inst_robot0_kinematics_kmodel0_inst_arm_0_joint_axis0">
					<param ref="robot0_motion/robot0_motion_robot0_kinematics_kmodel0_inst_arm_0_joint_axis0"/>
				</bind>
				<bind symbol="kscene_kmodel0_inst_robot0_kinematics_kmodel0_inst_arm_0_joint_axis0_value">
					<param ref="robot0_motion/robot0_motion_robot0_kinematics_kmodel0_inst_arm_0_joint_axis0_value"/>
				</bind>
				<bind symbol="kscene_kmodel0_inst_robot0_kinematics_kmodel0_inst_arm_1_joint_axis0">
					<param ref="robot0_motion/robot0_motion_robot0_kinematics_kmodel0_inst_arm_1_joint_axis0"/>
				</bind>
				<bind symbol="kscene_kmodel0_inst_robot0_kinematics_kmodel0_inst_arm_1_joint_axis0_value">
					<param ref="robot0_motion/robot0_motion_robot0_kinematics_kmodel0_inst_arm_1_joint_axis0_value"/>
				</bind>
				<bind symbol="kscene_kmodel0_inst_robot0_kinematics_kmodel0_inst_arm_2_joint_axis0">
					<param ref="robot0_motion/robot0_motion_robot0_kinematics_kmodel0_inst_arm_2_joint_axis0"/>
				</bind>
				<bind symbol="kscene_kmodel0_inst_robot0_kinematics_kmodel0_inst_arm_2_joint_axis0_value">
					<param ref="robot0_motion/robot0_motion_robot0_kinematics_kmodel0_inst_arm_2_joint_axis0_value"/>
				</bind>
				<bind symbol="kscene_kmodel0_inst_robot0_kinematics_kmodel0_inst_arm_3_joint_axis0">
					<param ref="robot0_motion/robot0_motion_robot0_kinematics_kmodel0_inst_arm_3_joint_axis0"/>
				</bind>
				<bind symbol="kscene_kmodel0_inst_robot0_kinematics_kmodel0_inst_arm_3_joint_axis0_value">
					<param ref="robot0_motion/robot0_motion_robot0_kinematics_kmodel0_inst_arm_3_joint_axis0_value"/>
				</bind>
				<bind symbol="kscene_kmodel0_inst_robot0_kinematics_kmodel0_inst_arm_4_joint_axis0">
					<param ref="robot0_motion/robot0_motion_robot0_kinematics_kmodel0_inst_arm_4_joint_axis0"/>
				</bind>
				<bind symbol="kscene_kmodel0_inst_robot0_kinematics_kmodel0_inst_arm_4_joint_axis0_value">
					<param ref="robot0_motion/robot0_motion_robot0_kinematics_kmodel0_inst_arm_4_joint_axis0_value"/>
				</bind>
				<bind symbol="kscene_kmodel0_inst_robot0_kinematics_kmodel0_inst_arm_5_joint_axis0">
					<param ref="robot0_motion/robot0_motion_robot0_kinematics_kmodel0_inst_arm_5_joint_axis0"/>
				</bind>
				<bind symbol="kscene_kmodel0_inst_robot0_kinematics_kmodel0_inst_arm_5_joint_axis0_value">
					<param ref="robot0_motion/robot0_motion_robot0_kinematics_kmodel0_inst_arm_5_joint_axis0_value"/>
				</bind>
				<bind symbol="kscene_kmodel0_inst_robot0_kinematics_kmodel0_inst_arm_6_joint_axis0">
					<param ref="robot0_motion/robot0_motion_robot0_kinematics_kmodel0_inst_arm_6_joint_axis0"/>
				</bind>
				<bind symbol="kscene_kmodel0_inst_robot0_kinematics_kmodel0_inst_arm_6_joint_axis0_value">
					<param ref="robot0_motion/robot0_motion_robot0_kinematics_kmodel0_inst_arm_6_joint_axis0_value"/>
				</bind>
			</instance_articulated_system>
		</kinematics_scene>
	</library_kinematics_scenes>
	<library_physics_scenes id="pscenes">
		<physics_scene id="pscene" name="URDF Physics Scene">
			<instance_physics_model url="#pmodel0" sid="pmodel0_inst" parent="#visual0">
				<instance_rigid_body body="rigid0" target="#vkmodel0_node0"/>
				<instance_rigid_body body="rigid1" target="#vkmodel0_node1"/>
				<instance_rigid_body body="rigid2" target="#vkmodel0_node2"/>
				<instance_rigid_body body="rigid3" target="#vkmodel0_node3"/>
				<instance_rigid_body body="rigid4" target="#vkmodel0_node4"/>
				<instance_rigid_body body="rigid5" target="#vkmodel0_node5"/>
				<instance_rigid_body body="rigid6" target="#vkmodel0_node6"/>
				<instance_rigid_body body="rigid7" target="#vkmodel0_node7"/>
			</instance_physics_model>
			<technique_common>
				<gravity>0 0 0</gravity>
			</technique_common>
		</physics_scene>
	</library_physics_scenes>
	<library_physics_models id="pmodels">
		<physics_model id="pmodel0" name="lwa4p">
			<rigid_body sid="rigid0" name="arm_0_link">
				<technique_common>
					<dynamic>true</dynamic>
					<mass>0.29364</mass>
					<mass_frame>
						<translate>0 0 0.5</translate>
						<rotate>1 0 0 0</rotate>
					</mass_frame>
					<inertia>0.01 0.01 0.01</inertia>
				</technique_common>
			</rigid_body>
			<rigid_body sid="rigid1" name="arm_1_link">
				<technique_common>
					<dynamic>true</dynamic>
					<mass>0.29364</mass>
					<mass_frame>
						<translate>0 0 0.61</translate>
						<rotate>1 0 0 0</rotate>
					</mass_frame>
					<inertia>0.01 0.01 0.01</inertia>
				</technique_common>
			</rigid_body>
			<rigid_body sid="rigid2" name="arm_2_link">
				<technique_common>
					<dynamic>true</dynamic>
					<mass>1.68311</mass>
					<mass_frame>
						<translate>0 0 0.61</translate>
						<rotate>1 0 0 90.00</rotate>
					</mass_frame>
					<inertia>0.03 0.03 0.03</inertia>
				</technique_common>
			</rigid_body>
			<rigid_body sid="rigid3" name="arm_3_link">
				<technique_common>
					<dynamic>true</dynamic>
					<mass>2.1</mass>
					<mass_frame>
						<translate>0 0 0.96</translate>
						<rotate>0 0.707107 0.707107 180</rotate>
					</mass_frame>
					<inertia>0.03 0.03 0.03</inertia>
				</technique_common>
			</rigid_body>
			<rigid_body sid="rigid4" name="arm_4_link">
				<technique_common>
					<dynamic>true</dynamic>
					<mass>1.68311</mass>
					<mass_frame>
						<translate>0 0 0.96</translate>
						<rotate>1 0 0 0</rotate>
					</mass_frame>
					<inertia>0.03 0.03 0.03</inertia>
				</technique_common>
			</rigid_body>
			<rigid_body sid="rigid5" name="arm_5_link">
				<technique_common>
					<dynamic>true</dynamic>
					<mass>0.807</mass>
					<mass_frame>
						<translate>0 0 1.265</translate>
						<rotate>0 0.707107 0.707107 180</rotate>
					</mass_frame>
					<inertia>0.03 0.03 0.03</inertia>
				</technique_common>
			</rigid_body>
			<rigid_body sid="rigid6" name="arm_6_link">
				<technique_common>
					<dynamic>true</dynamic>
					<mass>0.819</mass>
					<mass_frame>
						<translate>0 0 1.265</translate>
						<rotate>0 0 1 180</rotate>
					</mass_frame>
					<inertia>0.01 0.01 0.01</inertia>
				</technique_common>
			</rigid_body>
			<rigid_body sid="rigid7" name="base_link">
				<technique_common>
					<dynamic>true</dynamic>
					<mass>1000</mass>
					<mass_frame>
						<translate>0 0 -10</translate>
						<rotate>1 0 0 0</rotate>
					</mass_frame>
					<inertia>100 100 100</inertia>
				</technique_common>
			</rigid_body>
		</physics_model>
	</library_physics_models>
	<scene>
		<instance_physics_scene url="#pscene"/>
		<instance_visual_scene url="#vscene"/>
		<instance_kinematics_scene url="#kscene">
			<bind_kinematics_model node="visual0/node7">
				<param>kscene_kmodel0_inst</param>
			</bind_kinematics_model>
			<bind_joint_axis target="node0/node_arm_0_joint_axis0">
				<axis>
					<param>kscene_kmodel0_inst_robot0_kinematics_kmodel0_inst_arm_0_joint_axis0</param>
				</axis>
				<value>
					<param>kscene_kmodel0_inst_robot0_kinematics_kmodel0_inst_arm_0_joint_axis0_value</param>
				</value>
			</bind_joint_axis>
			<bind_joint_axis target="node7/node1/node_arm_1_joint_axis0">
				<axis>
					<param>kscene_kmodel0_inst_robot0_kinematics_kmodel0_inst_arm_1_joint_axis0</param>
				</axis>
				<value>
					<param>kscene_kmodel0_inst_robot0_kinematics_kmodel0_inst_arm_1_joint_axis0_value</param>
				</value>
			</bind_joint_axis>
			<bind_joint_axis target="node7/node0/node2/node_arm_2_joint_axis0">
				<axis>
					<param>kscene_kmodel0_inst_robot0_kinematics_kmodel0_inst_arm_2_joint_axis0</param>
				</axis>
				<value>
					<param>kscene_kmodel0_inst_robot0_kinematics_kmodel0_inst_arm_2_joint_axis0_value</param>
				</value>
			</bind_joint_axis>
			<bind_joint_axis target="node7/node0/node1/node3/node_arm_3_joint_axis0">
				<axis>
					<param>kscene_kmodel0_inst_robot0_kinematics_kmodel0_inst_arm_3_joint_axis0</param>
				</axis>
				<value>
					<param>kscene_kmodel0_inst_robot0_kinematics_kmodel0_inst_arm_3_joint_axis0_value</param>
				</value>
			</bind_joint_axis>
			<bind_joint_axis target="node7/node0/node1/node2/node4/node_arm_4_joint_axis0">
				<axis>
					<param>kscene_kmodel0_inst_robot0_kinematics_kmodel0_inst_arm_4_joint_axis0</param>
				</axis>
				<value>
					<param>kscene_kmodel0_inst_robot0_kinematics_kmodel0_inst_arm_4_joint_axis0_value</param>
				</value>
			</bind_joint_axis>
			<bind_joint_axis target="node7/node0/node1/node2/node3/node5/node_arm_5_joint_axis0">
				<axis>
					<param>kscene_kmodel0_inst_robot0_kinematics_kmodel0_inst_arm_5_joint_axis0</param>
				</axis>
				<value>
					<param>kscene_kmodel0_inst_robot0_kinematics_kmodel0_inst_arm_5_joint_axis0_value</param>
				</value>
			</bind_joint_axis>
			<bind_joint_axis target="node7/node0/node1/node2/node3/node4/node6/node_arm_6_joint_axis0">
				<axis>
					<param>kscene_kmodel0_inst_robot0_kinematics_kmodel0_inst_arm_6_joint_axis0</param>
				</axis>
				<value>
					<param>kscene_kmodel0_inst_robot0_kinematics_kmodel0_inst_arm_6_joint_axis0_value</param>
				</value>
			</bind_joint_axis>
		</instance_kinematics_scene>
	</scene>
	<extra id="sensors" type="library_sensors">
		<technique profile="OpenRAVE"/>
	</extra>
</COLLADA>